^C:\USERS\ADMIN\DESKTOP\VS\2010\№12 (16.12.19)\№12 (16.12.19)\STDAFX.CPP
C:\USERS\ADMIN\DESKTOP\VS\2010\№12 (16.12.19)\№12 (16.12.19)\DEBUG\№12 (16.12.19).PCH
C:\USERS\ADMIN\DESKTOP\VS\2010\№12 (16.12.19)\№12 (16.12.19)\DEBUG\STDAFX.OBJ
C:\USERS\ADMIN\DESKTOP\VS\2010\№12 (16.12.19)\№12 (16.12.19)\DEBUG\VC100.PDB
^C:\USERS\ADMIN\DESKTOP\VS\2010\№12 (16.12.19)\№12 (16.12.19)\№12 (16.12.19).CPP
C:\USERS\ADMIN\DESKTOP\VS\2010\№12 (16.12.19)\№12 (16.12.19)\DEBUG\VC100.PDB
C:\USERS\ADMIN\DESKTOP\VS\2010\№12 (16.12.19)\№12 (16.12.19)\DEBUG\№12 (16.12.19).OBJ
^C:\USERS\ADMIN\DESKTOP\НОВАЯ ПАПКА (2)\№12 (16.12.19)\№12 (16.12.19)\STDAFX.CPP
C:\USERS\ADMIN\DESKTOP\Новая папка (2)\№12 (16.12.19)\№12 (16.12.19)\DEBUG\№12 (16.12.19).PCH
C:\USERS\ADMIN\DESKTOP\Новая папка (2)\№12 (16.12.19)\№12 (16.12.19)\DEBUG\STDAFX.OBJ
C:\USERS\ADMIN\DESKTOP\НОВАЯ ПАПКА (2)\№12 (16.12.19)\№12 (16.12.19)\DEBUG\VC100.PDB
^C:\USERS\ADMIN\DESKTOP\НОВАЯ ПАПКА (2)\№12 (16.12.19)\№12 (16.12.19)\№12 (16.12.19).CPP
C:\USERS\ADMIN\DESKTOP\Новая папка (2)\№12 (16.12.19)\№12 (16.12.19)\DEBUG\№12 (16.12.19).OBJ
C:\USERS\ADMIN\DESKTOP\НОВАЯ ПАПКА (2)\№12 (16.12.19)\№12 (16.12.19)\DEBUG\VC100.PDB
