^C:\USERS\ADMIN\DESKTOP\VS\2010\№11 (09.12.19)\№11 (09.12.19)\DEBUG\№11 (09.12.19).EXE.INTERMEDIATE.MANIFEST
C:\USERS\ADMIN\DESKTOP\VS\2010\№11 (09.12.19)\№11 (09.12.19)\DEBUG\№11 (09.12.19).EXE.EMBED.MANIFEST
^C:\USERS\ADMIN\DESKTOP\НОВАЯ ПАПКА (2)\№11 (09.12.19)\№11 (09.12.19)\DEBUG\№11 (09.12.19).EXE.INTERMEDIATE.MANIFEST
C:\USERS\ADMIN\DESKTOP\Новая папка (2)\№11 (09.12.19)\№11 (09.12.19)\DEBUG\№11 (09.12.19).EXE.EMBED.MANIFEST
