^C:\USERS\ADMIN\DESKTOP\РАБОТЫ\№11 (09.12.19)\№11 (09.12.19)\STDAFX.CPP
C:\USERS\ADMIN\DESKTOP\работы\№11 (09.12.19)\№11 (09.12.19)\DEBUG\№11 (09.12.19).PCH
C:\USERS\ADMIN\DESKTOP\работы\№11 (09.12.19)\№11 (09.12.19)\DEBUG\VC142.PDB
C:\USERS\ADMIN\DESKTOP\работы\№11 (09.12.19)\№11 (09.12.19)\DEBUG\VC142.IDB
C:\USERS\ADMIN\DESKTOP\работы\№11 (09.12.19)\№11 (09.12.19)\DEBUG\STDAFX.OBJ
^C:\USERS\ADMIN\DESKTOP\РАБОТЫ\№11 (09.12.19)\№11 (09.12.19)\№11 (09.12.19).CPP
C:\USERS\ADMIN\DESKTOP\работы\№11 (09.12.19)\№11 (09.12.19)\DEBUG\VC142.PDB
C:\USERS\ADMIN\DESKTOP\работы\№11 (09.12.19)\№11 (09.12.19)\DEBUG\VC142.IDB
C:\USERS\ADMIN\DESKTOP\работы\№11 (09.12.19)\№11 (09.12.19)\DEBUG\№11 (09.12.19).OBJ
^C:\USERS\ADMIN\DESKTOP\РАБОТЫ\№11 (09.12.19) БИНАРНЫЕ ФАЙЛЫ\№11 (09.12.19)\STDAFX.CPP
C:\USERS\ADMIN\DESKTOP\работы\№11 (09.12.19) бинарные файлы\№11 (09.12.19)\DEBUG\№11 (09.12.19).PCH
C:\USERS\ADMIN\DESKTOP\работы\№11 (09.12.19) бинарные файлы\№11 (09.12.19)\DEBUG\VC142.PDB
C:\USERS\ADMIN\DESKTOP\работы\№11 (09.12.19) бинарные файлы\№11 (09.12.19)\DEBUG\VC142.IDB
C:\USERS\ADMIN\DESKTOP\работы\№11 (09.12.19) бинарные файлы\№11 (09.12.19)\DEBUG\STDAFX.OBJ
^C:\USERS\ADMIN\DESKTOP\РАБОТЫ\№11 (09.12.19) БИНАРНЫЕ ФАЙЛЫ\№11 (09.12.19)\№11 (09.12.19).CPP
C:\USERS\ADMIN\DESKTOP\работы\№11 (09.12.19) бинарные файлы\№11 (09.12.19)\DEBUG\VC142.PDB
C:\USERS\ADMIN\DESKTOP\работы\№11 (09.12.19) бинарные файлы\№11 (09.12.19)\DEBUG\VC142.IDB
C:\USERS\ADMIN\DESKTOP\работы\№11 (09.12.19) бинарные файлы\№11 (09.12.19)\DEBUG\№11 (09.12.19).OBJ
