^C:\USERS\ADMIN\DESKTOP\РАБОТЫ\№10 (02.12.19)\№10 (02.12.19)\DEBUG\STDAFX.OBJ|C:\USERS\ADMIN\DESKTOP\РАБОТЫ\№10 (02.12.19)\№10 (02.12.19)\DEBUG\№10 (02.12.19).OBJ
C:\USERS\ADMIN\DESKTOP\работы\№10 (02.12.19)\DEBUG\№10 (02.12.19).EXE
C:\USERS\ADMIN\DESKTOP\работы\№10 (02.12.19)\DEBUG\№10 (02.12.19).ILK
C:\USERS\ADMIN\DESKTOP\РАБОТЫ\№10 (02.12.19)\DEBUG\№10 (02.12.19).PDB
^C:\USERS\ADMIN\DESKTOP\РАБОТЫ\№10 (02.12.19) ТЕКСТОВЫЕ ФАЙЛЫ\№10 (02.12.19)\DEBUG\STDAFX.OBJ|C:\USERS\ADMIN\DESKTOP\РАБОТЫ\№10 (02.12.19) ТЕКСТОВЫЕ ФАЙЛЫ\№10 (02.12.19)\DEBUG\№10 (02.12.19).OBJ
C:\USERS\ADMIN\DESKTOP\работы\№10 (02.12.19) текстовые файлы\DEBUG\№10 (02.12.19).EXE
C:\USERS\ADMIN\DESKTOP\работы\№10 (02.12.19) текстовые файлы\DEBUG\№10 (02.12.19).ILK
C:\USERS\ADMIN\DESKTOP\РАБОТЫ\№10 (02.12.19) ТЕКСТОВЫЕ ФАЙЛЫ\DEBUG\№10 (02.12.19).PDB
