^C:\USERS\ADMIN\DESKTOP\VS\2010\№10 (02.12.19)\№10 (02.12.19)\DEBUG\№10 (02.12.19)_MANIFEST.RC
C:\USERS\ADMIN\DESKTOP\VS\2010\№10 (02.12.19)\№10 (02.12.19)\DEBUG\№10 (02.12.19).EXE.EMBED.MANIFEST.RES
^C:\USERS\ADMIN\DESKTOP\НОВАЯ ПАПКА (2)\№10 (02.12.19)\№10 (02.12.19)\DEBUG\№10 (02.12.19)_MANIFEST.RC
C:\USERS\ADMIN\DESKTOP\Новая папка (2)\№10 (02.12.19)\№10 (02.12.19)\DEBUG\№10 (02.12.19).EXE.EMBED.MANIFEST.RES
