^C:\USERS\ADMIN\DESKTOP\РАБОТЫ\№12 (16.12.19)\№12 (16.12.19)\STDAFX.CPP
/c /ZI /JMC /nologo /W3 /WX- /diagnostics:column /Od /Oy- /D WIN32 /D _DEBUG /D _CONSOLE /D _UNICODE /D UNICODE /Gm- /EHsc /RTC1 /MDd /GS /fp:precise /Zc:wchar_t /Zc:forScope /Zc:inline /Yc"stdafx.h" /Fp"DEBUG\№12 (16.12.19).PCH" /Fo"DEBUG\\" /Fd"DEBUG\VC142.PDB" /Gd /TP /analyze- /FC C:\USERS\ADMIN\DESKTOP\РАБОТЫ\№12 (16.12.19)\№12 (16.12.19)\STDAFX.CPP
^C:\USERS\ADMIN\DESKTOP\РАБОТЫ\№12 (16.12.19)\№12 (16.12.19)\№12 (16.12.19).CPP
/c /ZI /JMC /nologo /W3 /WX- /diagnostics:column /Od /Oy- /D WIN32 /D _DEBUG /D _CONSOLE /D _UNICODE /D UNICODE /Gm- /EHsc /RTC1 /MDd /GS /fp:precise /Zc:wchar_t /Zc:forScope /Zc:inline /Yu"stdafx.h" /Fp"DEBUG\№12 (16.12.19).PCH" /Fo"DEBUG\\" /Fd"DEBUG\VC142.PDB" /Gd /TP /analyze- /FC C:\USERS\ADMIN\DESKTOP\РАБОТЫ\№12 (16.12.19)\№12 (16.12.19)\№12 (16.12.19).CPP
^C:\USERS\ADMIN\DESKTOP\РАБОТЫ\№12 (16.12.19) СПИСКИ НАЧАЛО\№12 (16.12.19)\STDAFX.CPP
/c /ZI /JMC /nologo /W3 /WX- /diagnostics:column /Od /Oy- /D WIN32 /D _DEBUG /D _CONSOLE /D _UNICODE /D UNICODE /Gm- /EHsc /RTC1 /MDd /GS /fp:precise /Zc:wchar_t /Zc:forScope /Zc:inline /Yc"stdafx.h" /Fp"DEBUG\№12 (16.12.19).PCH" /Fo"DEBUG\\" /Fd"DEBUG\VC142.PDB" /Gd /TP /analyze- /FC C:\USERS\ADMIN\DESKTOP\РАБОТЫ\№12 (16.12.19) СПИСКИ НАЧАЛО\№12 (16.12.19)\STDAFX.CPP
^C:\USERS\ADMIN\DESKTOP\РАБОТЫ\№12 (16.12.19) СПИСКИ НАЧАЛО\№12 (16.12.19)\№12 (16.12.19).CPP
/c /ZI /JMC /nologo /W3 /WX- /diagnostics:column /Od /Oy- /D WIN32 /D _DEBUG /D _CONSOLE /D _UNICODE /D UNICODE /Gm- /EHsc /RTC1 /MDd /GS /fp:precise /Zc:wchar_t /Zc:forScope /Zc:inline /Yu"stdafx.h" /Fp"DEBUG\№12 (16.12.19).PCH" /Fo"DEBUG\\" /Fd"DEBUG\VC142.PDB" /Gd /TP /analyze- /FC C:\USERS\ADMIN\DESKTOP\РАБОТЫ\№12 (16.12.19) СПИСКИ НАЧАЛО\№12 (16.12.19)\№12 (16.12.19).CPP
